%YAML 1.1
%TAG !u! tag:unity3d.com,2011:
--- !u!1001 &6889962694162489130
PrefabInstance:
  m_ObjectHideFlags: 0
  serializedVersion: 2
  m_Modification:
    m_TransformParent: {fileID: 0}
    m_Modifications:
    - target: {fileID: -8679921383154817045, guid: 93e7f388db14d174ca77440259546944, type: 3}
      propertyPath: m_RootOrder
      value: 0
      objectReference: {fileID: 0}
    - target: {fileID: -8679921383154817045, guid: 93e7f388db14d174ca77440259546944, type: 3}
      propertyPath: m_LocalScale.x
      value: 0.02470603
      objectReference: {fileID: 0}
    - target: {fileID: -8679921383154817045, guid: 93e7f388db14d174ca77440259546944, type: 3}
      propertyPath: m_LocalScale.y
      value: 0.02470603
      objectReference: {fileID: 0}
    - target: {fileID: -8679921383154817045, guid: 93e7f388db14d174ca77440259546944, type: 3}
      propertyPath: m_LocalScale.z
      value: 0.02470603
      objectReference: {fileID: 0}
    - target: {fileID: -8679921383154817045, guid: 93e7f388db14d174ca77440259546944, type: 3}
      propertyPath: m_LocalPosition.x
      value: 487.22
      objectReference: {fileID: 0}
    - target: {fileID: -8679921383154817045, guid: 93e7f388db14d174ca77440259546944, type: 3}
      propertyPath: m_LocalPosition.y
      value: 25.88
      objectReference: {fileID: 0}
    - target: {fileID: -8679921383154817045, guid: 93e7f388db14d174ca77440259546944, type: 3}
      propertyPath: m_LocalPosition.z
      value: 760.98
      objectReference: {fileID: 0}
    - target: {fileID: -8679921383154817045, guid: 93e7f388db14d174ca77440259546944, type: 3}
      propertyPath: m_LocalRotation.w
      value: -0.037464257
      objectReference: {fileID: 0}
    - target: {fileID: -8679921383154817045, guid: 93e7f388db14d174ca77440259546944, type: 3}
      propertyPath: m_LocalRotation.x
      value: -0
      objectReference: {fileID: 0}
    - target: {fileID: -8679921383154817045, guid: 93e7f388db14d174ca77440259546944, type: 3}
      propertyPath: m_LocalRotation.y
      value: 0.999298
      objectReference: {fileID: 0}
    - target: {fileID: -8679921383154817045, guid: 93e7f388db14d174ca77440259546944, type: 3}
      propertyPath: m_LocalRotation.z
      value: -0
      objectReference: {fileID: 0}
    - target: {fileID: -8679921383154817045, guid: 93e7f388db14d174ca77440259546944, type: 3}
      propertyPath: m_LocalEulerAnglesHint.x
      value: 0
      objectReference: {fileID: 0}
    - target: {fileID: -8679921383154817045, guid: 93e7f388db14d174ca77440259546944, type: 3}
      propertyPath: m_LocalEulerAnglesHint.y
      value: 184.294
      objectReference: {fileID: 0}
    - target: {fileID: -8679921383154817045, guid: 93e7f388db14d174ca77440259546944, type: 3}
      propertyPath: m_LocalEulerAnglesHint.z
      value: 0
      objectReference: {fileID: 0}
    - target: {fileID: 919132149155446097, guid: 93e7f388db14d174ca77440259546944, type: 3}
      propertyPath: m_Name
      value: CadeiraSecretaria
      objectReference: {fileID: 0}
    m_RemovedComponents: []
  m_SourcePrefab: {fileID: 100100000, guid: 93e7f388db14d174ca77440259546944, type: 3}
